{
  "floors":[
    {
      "name":"GROUND FLOOR: ACCESSORIES, BEAUTY & JEWELLERY",
      "categories":[
        {
          "name":"ILLUM ACCESSORIES",
          "stores":[
            "Phillip Lim", "Aesther Ekme", "Alexander Wang", "All Saints", "Anya Hindmarch", "Barts", "BeckSöndergaard", "Bettina", "Céline", "Chloé", "Christian Lacroix", "Coach", "Codello", "DKNY", "DVF", "Elena Ghisellini", "Elie Saab", "Épice", "Furla", "Gedebe", "IF Bags", "Inverni", "Jérôme Dreyfuss", "Kenzo", "M.J.M", "Marni", "Max Mara", "MCM", "Michael Kors", "Missoni", "Moschino", "Oh! By Kopenhagen Fur", "Orciani", "Paul Smith", "Paula Cademartori", "Proenza Schouler", "Rebecca Minkoff", "Roberto Cavalli", "Royal Republiq", "Saldarini 1882", "See by Chloé", "Sermoneta Gloves", "Sophie Hulme", "Tory Burch", "Versace", "Vivienne Westwood", "Yves Salomon"
          ]
        },
        {
          "name":"ILLUM BEAUTY HALL",
          "stores":[
            "Phillip Lim", "Aesther Ekme", "Alexander Wang", "All Saints", "Anya Hindmarch", "Barts", "BeckSöndergaard", "Bettina", "Céline", "Chloé", "Christian Lacroix", "Coach", "Codello", "DKNY", "DVF", "Elena Ghisellini", "Elie Saab", "Épice", "Furla", "Gedebe", "IF Bags", "Inverni", "Jérôme Dreyfuss", "Kenzo", "M.J.M", "Marni", "Max Mara", "MCM", "Michael Kors", "Missoni", "Moschino", "Oh! By Kopenhagen Fur", "Orciani", "Paul Smith", "Paula Cademartori", "Proenza Schouler", "Rebecca Minkoff", "Roberto Cavalli", "Royal Republiq", "Saldarini 1882", "See by Chloé", "Sermoneta Gloves", "Sophie Hulme", "Tory Burch", "Versace", "Vivienne Westwood", "Yves Salomon"
          ]
        }
      ]
    },
    {
      "name":"1ST FLOOR: MEN’S FASHION, SHOES & ACCESSORIES",
      "categories":[
        {
          "name":"ILLUM ACCESSORIES",
          "stores":[
            "Phillip Lim", "Aesther Ekme", "Alexander Wang", "All Saints", "Anya Hindmarch", "Barts", "BeckSöndergaard", "Bettina", "Céline", "Chloé", "Christian Lacroix", "Coach", "Codello", "DKNY", "DVF", "Elena Ghisellini", "Elie Saab", "Épice", "Furla", "Gedebe", "IF Bags", "Inverni", "Jérôme Dreyfuss", "Kenzo", "M.J.M", "Marni", "Max Mara", "MCM", "Michael Kors", "Missoni", "Moschino", "Oh! By Kopenhagen Fur", "Orciani", "Paul Smith", "Paula Cademartori", "Proenza Schouler", "Rebecca Minkoff", "Roberto Cavalli", "Royal Republiq", "Saldarini 1882", "See by Chloé", "Sermoneta Gloves", "Sophie Hulme", "Tory Burch", "Versace", "Vivienne Westwood", "Yves Salomon"
          ]
        }
      ]
    }
  ],
  "footer_text": "Brands where you can earn and use ILLUM key points. The list is issued January 2018 and will be updated regularly. This list is subject to change and errors."
}