{
  "vouchers": [{
    "id": "194",
    "thumb": "http://key.illum.dk\/application\/files\/5215\/2889\/6116\/8884_Illum_voucherbilleder_267_lyshall.png",
    "name": "10% til illum",
    "description": "Tak for dit download. Denne KEY giver dig 10 % på et stort udvalg af brands i ILLUM.",
    "enddate": false,
     "cashed": false
  }, {
    "id": "196",
    "thumb": "http://key.illum.dk\/application\/files\/7915\/2889\/5945\/8884_Illum_voucherbilleder_267x267_illumpakke.png",
    "name": "10% F\u00f8dselsdagsvoucher",
    "description": "Tak for dit download. Denne KEY giver dig 10 % på et stort udvalg af brands i ILLUM.",
    "enddate": false,
     "cashed": false
  }, {
    "id": "198",
    "thumb": "http://key.illum.dk\/application\/files\/3115\/2889\/4368\/8884_Illum_voucherbilleder_267x177_accesoriesmaend.png",
    "name": "10% til illum beauty hall",
    "description": "Tak for dit download. Denne KEY giver dig 10 % på et stort udvalg af brands i ILLUM.",
    "enddate": false,
     "cashed": false
  }, {
    "id": "195",
    "thumb": "http://key.illum.dk\/application\/files\/6415\/2889\/4369\/8884_Illum_voucherbilleder_267x177_lyshalltrae.png",
    "name": "10% p\u00e5 f\u00f8rste k\u00f8b",
    "description": "Tak for dit download. Denne KEY giver dig 10 % på et stort udvalg af brands i ILLUM.",
    "enddate": false,
     "cashed": false
  }, {
    "id": "197",
    "thumb": "http://key.illum.dk\/application\/files\/6615\/2889\/5945\/8884_Illum_voucherbilleder_267x185_damesko.png",
    "name": "10% til illum beauty hall",
    "description": "Tak for dit download. Denne KEY giver dig 10 % på et stort udvalg af brands i ILLUM.",
    "enddate": false,
     "cashed": true
  }, {
    "id": "199",
    "thumb": "http://key.illum.dk\/application\/files\/4915\/2889\/5946\/8884_Illum_voucherbilleder_267x175_balloner.png",
    "name": "10% p\u00e5 n\u00e6ste k\u00f8b",
    "description": "Tak for dit download. Denne KEY giver dig 10 % på et stort udvalg af brands i ILLUM.",
    "enddate": false,
     "cashed": true
  }]
}